{
    "icons": [ "awesome-fonts" ],
    "colors": [{
        "fg": "#ECEFF4",
        "bg": "#2e3440",
        "red": "#bf616a",
        "green": "#A3BE8C",
        "yellow": "#EBCB8B",
        "blue": "#81A1C1",
        "magenta": "#b48ead",
        "cyan": "#88c0d0",
        "cycle1": "#EBCB8B",
        "cycle2": "#b48ead"
    }],
    "defaults": {
        "separator-block-width": 0,
        "warning": {
            "fg": "bg",
            "bg": "yellow"
        },
        "critical": {
            "fg": "bg",
            "bg": "red"
        }
    },
    "cycle": [
        { "fg": "bg", "bg": "blue"},
        { "fg": "bg", "bg": "cycle1"},
        { "fg": "bg", "bg": "cycle2"}
    ],
    "spacer": {
            "fg": "bg",
            "bg": "fg"
    },
    "git": {
        "main": {
            "fg": "bg",
            "bg": "yellow"
        },
        "new": {
            "fg": "bg",
            "bg": "blue"
        },
        "modified": {
            "fg": "bg",
            "bg": "magenta"
        },
        "deleted": {
            "fg": "bg",
            "bg": "red"
        }
    },
    "uptime": {
            "fg": "bg",
            "bg": "blue"
    },
    "layout": {
            "fg": "bg",
            "bg": "yellow"
    },
    "title": {
            "fg": "bg",
            "bg": "blue"
    },
    "nic": {
            "fg": "bg",
            "bg": "red"
    },
    "cpu": {
            "fg": "bg",
            "bg": "green"
    },
    "memory": {
            "fg": "bg",
            "bg": "red"
    },
    "dnf": {
        "good": {
            "fg": "green",
            "bg": "bg"
        }
    },
    "apt": {
        "good": {
            "fg": "bg",
            "bg": "green"
        },
        "warning": {
            "fg": "bg",
            "bg": "red"
        }
    },
    "pacman": {
        "good": {
            "fg": "green",
            "bg": "bg"
        }
    },
    "battery": {
        "charged": {
            "fg": "bg",
            "bg": "green"
        },
        "charging": {
            "fg": "bg",
            "bg": "blue"
        },
        "AC": {
            "fg": "bg",
            "bg": "green"
        }
    },
    "pomodoro": {
        "paused": {
            "fg": "bg",
            "bg": "red"
        },
        "work": {
            "fg": "bg",
            "bg": "yellow"
        },
        "break": {
            "fg": "green",
            "bg": "bg"
        }
    }

}
